<?xml version="1.0" encoding="UTF-8"?>
<svg width="27px" height="32px" viewBox="0 0 27 32" version="1.1" xmlns="http://www.w3.org/2000/svg" xmlns:xlink="http://www.w3.org/1999/xlink">
    <!-- Generator: Sketch 51.1 (57501) - http://www.bohemiancoding.com/sketch -->
    <title>badge</title>
    <desc>Created with Sketch.</desc>
    <defs></defs>
    <g id="Employees_Web-App" stroke="none" stroke-width="1" fill="none" fill-rule="evenodd">
        <g id="Web_Dropdown" transform="translate(-436.000000, -508.000000)" fill="#FF3E00">
            <g id="Group-3" transform="translate(436.000000, 508.000000)">
                <g id="badge">
                    <g id="Shape">
                        <path d="M26.8112477,26.9628035 L24.8409908,23.6049429 C24.7077248,23.3778943 24.4171032,23.3027523 24.1919381,23.4369344 C23.9666491,23.5711789 23.8920275,23.864008 24.0252317,24.0910566 L25.99425,27.4467952 C26.0486835,27.5406603 26.0130138,27.6194221 25.9868807,27.6579916 C25.9608716,27.6965612 25.9015459,27.7589091 25.7944128,27.7418087 L22.7933876,27.2665543 C22.2594564,27.1821132 21.7335138,27.4912938 21.5442661,28.0021219 L20.4816674,30.870249 C20.4438922,30.972165 20.3608486,30.994071 20.3147133,30.9980653 C20.2688257,31.0021844 20.1831193,30.9948824 20.1273234,30.8987081 L17.1563945,25.8354865 C17.2484794,25.8492792 17.3405642,25.8565812 17.431906,25.8565812 C18.1201583,25.8565812 18.7689633,25.473382 19.0982271,24.824003 L20.8537225,21.3610435 C20.9432683,21.1844224 21.0832225,21.0433127 21.2585367,20.9530675 L21.9692064,20.587156 L22.9599702,22.2756662 C23.0484633,22.4264495 23.2062523,22.5102041 23.3683142,22.5102041 C23.450305,22.5102041 23.5333486,22.4887349 23.6090849,22.4436123 C23.8343739,22.3093678 23.9089954,22.0165387 23.7757913,21.7894901 L22.8148142,20.1517818 L24.6947202,19.1838607 C25.5202018,18.7587842 25.9120734,17.8052175 25.6265917,16.916495 L24.4382202,13.2168133 C24.377594,13.0280846 24.377594,12.8285589 24.4382202,12.6398302 L25.6265917,8.94014854 C25.9120734,8.05136366 25.5201399,7.09773451 24.6947202,6.67278287 L21.2586606,4.90357611 C21.0832844,4.81326843 20.9433303,4.67222118 20.8537844,4.49553766 L19.098289,1.03257817 C18.6765688,0.200649067 17.7302683,-0.194283218 16.8484954,0.093428197 L13.1774862,1.29101916 C12.9901583,1.35211883 12.7922408,1.35211883 12.6049128,1.29101916 L8.93390367,0.0933657867 C8.05213073,-0.194345628 7.1058922,0.200649067 6.68411009,1.03251576 L4.92855275,4.49547525 C4.83906881,4.67209636 4.69911468,4.81314361 4.52380046,4.90345129 L1.0876789,6.67265805 C0.262197248,7.0976721 -0.129674312,8.05123884 0.155807339,8.94002372 L1.3441789,12.6398302 C1.40480505,12.8284965 1.40480505,13.0280222 1.34411697,13.2167509 L0.155807339,16.9164326 C-0.129674312,17.8051551 0.262259174,18.7587842 1.0876789,19.1837983 L3.90280046,20.6332772 L0.187699541,26.9649254 C-0.0374036697,27.3531174 -0.0209931193,27.8250016 0.230552752,28.1963428 C0.482036697,28.567684 0.911869266,28.755102 1.3527867,28.6852649 L4.35381193,28.2100106 C4.4454633,28.1953442 4.53550459,28.2485178 4.56795413,28.3361418 L5.63061468,31.2042689 C5.78666972,31.6255383 6.15965367,31.9111278 6.60416284,31.9495725 C6.63809862,31.9525058 6.67184862,31.9539412 6.70535092,31.9539412 C7.11103211,31.9539412 7.4817867,31.7413718 7.68849771,31.3847594 L11.4731422,24.9347188 L12.6049128,24.5654996 C12.7922408,24.5043999 12.9901583,24.5043999 13.1774862,24.5654372 L15.81525,25.4260126 L19.3103876,31.3826375 C19.5183372,31.7413094 19.8891537,31.9540036 20.2948349,31.9540036 C20.3282752,31.9540036 20.3620252,31.9525682 20.3958991,31.9496349 C20.8404083,31.9111278 21.2134541,31.6256007 21.3695711,31.2043313 L22.4321697,28.3361418 C22.4646193,28.2485802 22.5545367,28.1954066 22.6463119,28.210073 L25.6473372,28.6853273 C26.0880688,28.7552893 26.5181491,28.5677464 26.7695711,28.1964052 C27.021117,27.8250016 27.0375275,27.3531174 26.8112477,26.9628035 Z M13.4692844,23.6568058 C13.0910986,23.5334831 12.6913005,23.5334207 12.3131147,23.6568683 L8.6421055,24.8545216 C8.20558486,24.9968795 7.73692431,24.8014729 7.52804587,24.3894402 L7.0632867,23.4725707 C6.94426376,23.2376584 6.65872018,23.144667 6.42575229,23.2645572 C6.19272248,23.3845098 6.10026606,23.6722212 6.21935092,23.9070711 L6.68411009,24.8239406 C7.1058922,25.6558073 8.05206881,26.0508644 8.93390367,25.7630906 L10.1115,25.3788928 L6.87156193,30.9007052 C6.81712844,30.9946327 6.73136009,31.0020595 6.68541055,30.9979405 C6.63927523,30.9939462 6.55629358,30.9720402 6.51851835,30.8701242 L5.4558578,28.0020595 C5.26661009,27.4911689 4.74122477,27.1818012 4.20673624,27.2664295 L1.20571101,27.7416838 C1.09857798,27.7587218 1.03931422,27.696374 1.01324312,27.6578668 C0.987172018,27.6192973 0.951502294,27.5405979 1.00469725,27.4488548 L4.73063532,21.0987955 C4.81070642,21.1731885 4.87795872,21.2611246 4.92855275,21.3610435 L5.22276606,21.9413967 C5.34185092,22.1763091 5.62727064,22.2693628 5.86030046,22.1494102 C6.09333028,22.0293952 6.1857867,21.7417462 6.06670183,21.5068963 L5.77248853,20.9265431 C5.59172477,20.5697435 5.30896789,20.2847781 4.95493349,20.1025401 L1.51881193,18.3333333 C1.11009633,18.1228234 0.916080275,17.6506896 1.05739679,17.2105723 L2.2456445,13.510953 C2.36819725,13.129751 2.36819725,12.7267054 2.24570642,12.3455657 L1.05739679,8.64582163 C0.916018349,8.20576671 1.11009633,7.73357049 1.51881193,7.52312301 L4.95499541,5.75391625 C5.30902982,5.57155339 5.59172477,5.28658803 5.77248853,4.92991325 L7.52798394,1.46701616 C7.73680046,1.05504587 8.20539908,0.859452038 8.64204358,1.00193472 L12.3130528,2.19958809 C12.6912385,2.32297323 13.0910986,2.32297323 13.4692844,2.19958809 L17.1402936,1.00193472 C17.5769381,0.859576858 18.0455367,1.05504587 18.2543532,1.46701616 L20.0097867,4.92985084 C20.1906124,5.28658803 20.4733073,5.5716158 20.8274037,5.75391625 L24.2635252,7.52312301 C24.6722408,7.73357049 24.8662569,8.20576671 24.7249404,8.64582163 L23.5365688,12.3455657 C23.4141399,12.7267054 23.4141399,13.1296886 23.5365688,13.5108906 L24.7249404,17.2105723 C24.8663188,17.6506272 24.6722408,18.1228234 24.2635252,18.3332709 L22.0718807,19.4617113 C22.0114404,19.4701367 21.9516193,19.4904824 21.8957615,19.5236847 C21.8579862,19.5462148 21.8248555,19.5734881 21.7958739,19.6038195 L20.8274037,20.1024777 C20.4733693,20.2847781 20.1906124,20.5696811 20.0098486,20.9264807 L18.2543532,24.3893778 C18.0454748,24.8013481 17.5771239,24.9968795 17.1402936,24.8544592 L13.4692844,23.6568058 Z" fill-rule="nonzero"></path>
                        <path d="M17.1887202,4.94670162 C16.9586009,4.82050802 16.6709518,4.90644698 16.5460459,5.13811396 C16.4210161,5.36984335 16.5060413,5.65980154 16.7359748,5.78574549 C19.3367683,7.21088435 20.9524335,9.94770018 20.9524335,12.9281658 C20.9524335,17.4078512 17.3361674,21.0522998 12.8912615,21.0522998 C8.4463555,21.0522998 4.83008945,17.4079136 4.83008945,12.9282282 C4.83008945,8.44854272 8.44629358,4.80409411 12.8911995,4.80409411 C13.5671284,4.80409411 14.2385986,4.88847282 14.887094,5.05492105 C15.1403739,5.12001498 15.3986697,4.96561193 15.4631972,4.7099794 C15.5277867,4.45440929 15.3745803,4.19440804 15.1209289,4.12931411 C14.396078,3.94326905 13.6458991,3.84896711 12.8911995,3.84896711 C7.92369495,3.84896711 3.88236468,7.92192473 3.88236468,12.9282282 C3.88236468,17.9345316 7.92369495,22.0074268 12.8911995,22.0074268 C17.8587041,22.0074268 21.9000963,17.9345316 21.9000963,12.9282282 C21.9000963,9.59745366 20.0948119,6.53916245 17.1887202,4.94670162 Z" fill-rule="nonzero"></path>
                        <path d="M17.1675413,12.9211758 C17.4908601,12.6035699 17.6050528,12.137365 17.4654702,11.7045497 C17.3259495,11.2717968 16.9616972,10.9622418 16.5148349,10.8968358 L14.8603417,10.6545591 C14.7854106,10.6435749 14.7206972,10.596143 14.687195,10.5278038 L13.9472959,9.01678837 L13.9472959,9.01672596 C13.7474587,8.60868751 13.3428303,8.35517693 12.8912615,8.35517693 C12.4396927,8.35517693 12.0350642,8.60868751 11.8352271,9.01672596 L11.0953899,10.5276166 C11.0618257,10.5960806 10.9971124,10.6435125 10.9221812,10.6544967 L9.26768807,10.8967734 C8.82082569,10.9621794 8.45651147,11.2717344 8.31705275,11.7044873 C8.17747018,12.1373026 8.29166284,12.603445 8.61498165,12.9211134 L9.81227064,14.0972352 C9.86645642,14.1504712 9.89116514,14.2271734 9.87840826,14.3023154 L9.59577523,15.9631155 C9.51948165,16.4115958 9.69894495,16.8563939 10.06425,17.123822 C10.2707133,17.2749797 10.5121651,17.3518068 10.7553509,17.3518068 C10.9424931,17.3518068 11.1306261,17.3063097 11.3044541,17.2141921 L12.7843142,16.4301317 C12.8513188,16.3946202 12.9312661,16.3946202 12.9982706,16.4301317 L14.4781307,17.2141921 C14.877805,17.4258878 15.3530917,17.3913749 15.7183349,17.1238844 C16.0836399,16.8563939 16.2631651,16.4116582 16.1868096,15.9631155 L15.9041766,14.3023154 C15.8914197,14.2271734 15.9161284,14.1504712 15.9703142,14.0972976 L17.1675413,12.9211758 Z M15.3086904,13.4134681 C15.0311353,13.6862011 14.9044954,14.0788866 14.9700757,14.4638957 L15.2527087,16.1246333 C15.2745069,16.2527617 15.195922,16.3257817 15.1611812,16.3512451 C15.1264404,16.3767709 15.0332408,16.4294452 14.9189862,16.3688448 L13.4391261,15.5847844 C13.0959289,15.4029832 12.6862844,15.4029832 12.3430872,15.5847844 L10.8632271,16.3688448 C10.7492202,16.4293828 10.6558349,16.3767709 10.6210321,16.3512451 C10.5862913,16.3257817 10.5077683,16.2527617 10.5295046,16.1246333 L10.8121376,14.4638957 C10.8777179,14.0788242 10.7511399,13.6861387 10.4735229,13.4134057 L9.27623394,12.2372839 C9.18383945,12.1465393 9.20477064,12.0409411 9.21802294,11.9997504 C9.23127523,11.9585596 9.27598624,11.8607627 9.40361697,11.8420396 L11.058172,11.5997628 C11.4417454,11.5435936 11.7731766,11.30088 11.9448372,10.9505086 L12.6847362,9.43955564 C12.7418326,9.32297323 12.8479128,9.31042876 12.8909518,9.31042876 C12.9339908,9.31042876 13.0400711,9.32303564 13.0971674,9.43955564 L13.8371284,10.9506335 C14.0087271,11.3009424 14.3401583,11.5435936 14.7237936,11.5998253 L16.3782867,11.842102 C16.5059174,11.8608251 16.5506284,11.958622 16.5638807,11.9998128 C16.577133,12.0410036 16.5980642,12.1466018 16.5056697,12.2373463 L15.3086904,13.4134681 Z" fill-rule="nonzero"></path>
                    </g>
                </g>
            </g>
        </g>
    </g>
</svg>